…
chart2data
```

    ## # A tibble: 70 × 6
    ##    group ano   mean_wage job_number mean_wage_index job_number_index
    ##    <fct> <fct>     <dbl>      <dbl>           <dbl>            <dbl>
    ##  1 NRM   2006       9.30    7735410            1                1   
    ##  2 NRM   2007       9.53    8229576            1.02             1.06
    ##  3 NRM   2008       9.73    9500534            1.05             1.23
    ##  4 NRM   2009      10.2     9833760            1.10             1.27
    ##  5 NRM   2010      10.4    10636678            1.12             1.38
    ##  6 NRM   2011      10.7    11421806            1.15             1.48
    ##  7 NRM   2012      11.2    11962233            1.20             1.55
    ##  8 NRM   2013      11.5    12480746            1.24             1.61
    ##  9 NRM   2014      11.6    12826292            1.24             1.66
    ## 10 NRM   2015      11.3    12445052            1.21             1.61
    ## # ℹ 60 more rows
…
chart3data
```

    ## # A tibble: 24 × 5
    ##    interval  group delta_job_number mean_wage_2006 order
    ##    <chr>     <fct>            <dbl>          <dbl> <int>
    ##  1 2006-2008 NRM            0.228             9.30     1
    ##  2 2008-2010 NRM            0.120             9.30     2
    ##  3 2010-2012 NRM            0.125             9.30     3
    ##  4 2012-2014 NRM            0.0722            9.30     4
    ##  5 2014-2016 NRM           -0.0877            9.30     5
    ##  6 2016-2018 NRM           -0.00185           9.30     6
    ##  7 2006-2008 RM             0.159            11.0      7
    ##  8 2008-2010 RM             0.104            11.0      8
    ##  9 2010-2012 RM             0.0743           11.0      9
    ## 10 2012-2014 RM            -0.0143           11.0     10
    ## # ℹ 14 more rows
…
