…
``` r
sql <- "
SELECT
  cbo.cbo_2002,
  cbo.descricao
FROM
  basedosdados.br_bd_diretorios_brasil.cbo_2002 AS cbo
"

cbo <- basedosdados::read_sql(sql)
cbo
```

    ## # A tibble: 2,684 × 2
    ##    cbo_2002 descricao                     
    ##    <chr>    <chr>                         
    ##  1 010105   Oficial general da aeronáutica
    ##  2 010110   Oficial general do exército   
    ##  3 010115   Oficial general da marinha    
    ##  4 010205   Oficial da aeronáutica        
    ##  5 010210   Oficial do exército           
    ##  6 010215   Oficial da marinha            
    ##  7 010305   Praça da aeronáutica          
    ##  8 010310   Praça do exército             
    ##  9 010315   Praça da marinha              
    ## 10 020105   Coronel da polícia militar    
    ## # ℹ 2,674 more rows
…
cbo
```

    ## # A tibble: 2,684 × 3
    ##    cbo_2002 descricao                      group
    ##    <chr>    <chr>                          <chr>
    ##  1 010105   Oficial general da aeronáutica <NA> 
    ##  2 010110   Oficial general do exército    <NA> 
    ##  3 010115   Oficial general da marinha     <NA> 
    ##  4 010205   Oficial da aeronáutica         <NA> 
    ##  5 010210   Oficial do exército            <NA> 
    ##  6 010215   Oficial da marinha             <NA> 
    ##  7 010305   Praça da aeronáutica           <NA> 
    ##  8 010310   Praça do exército              <NA> 
    ##  9 010315   Praça da marinha               <NA> 
    ## 10 020105   Coronel da polícia militar     <NA> 
    ## # ℹ 2,674 more rows
…
