…
Now, create a combination of all countries and years to hold the final
dataset.

``` r
final_trades <- crossing(countries_no_groups$name, years) %>%
  rename(
    "reporter" = "countries_no_groups$name",
    "year" = "years"
  )
final_trades
```

    ## # A tibble: 591 × 2
    ##    reporter     year
    ##    <chr>       <dbl>
    ##  1 Afghanistan  2008
    ##  2 Afghanistan  2009
    ##  3 Afghanistan  2010
    ##  4 Albania      2008
    ##  5 Albania      2009
    ##  6 Albania      2010
    ##  7 Algeria      2008
    ##  8 Algeria      2009
    ##  9 Algeria      2010
    ## 10 Andorra      2008
    ## # ℹ 581 more rows

Filter the final dataset so that it contains only the countries that
appear at least one time on the trades dataset.

``` r
final_trades <- final_trades %>%
  filter(reporter %in% trades_no_groups$Reporter)
final_trades
```

    ## # A tibble: 474 × 2
    ##    reporter  year
    ##    <chr>    <dbl>
    ##  1 Albania   2008
    ##  2 Albania   2009
    ##  3 Albania   2010
    ##  4 Algeria   2008
    ##  5 Algeria   2009
    ##  6 Algeria   2010
    ##  7 Andorra   2008
    ##  8 Andorra   2009
    ##  9 Andorra   2010
    ## 10 Anguila   2008
    ## # ℹ 464 more rows

And bring the data from trades dataset into the final dataset.

``` r
final_trades<- final_trades %>%
  left_join(trades_no_groups, by=join_by(reporter==Reporter, year==Year))
final_trades
```

    ## # A tibble: 474 × 4
    ##    reporter  year `Trade Value 1000USD` Quantity
    ##    <chr>    <dbl>                 <dbl>    <int>
    ##  1 Albania   2008                1003.        NA
    ##  2 Albania   2009                 616.     11974
    ##  3 Albania   2010                1047.      4047
    ##  4 Algeria   2008                 103.        22
    ##  5 Algeria   2009                  74         44
    ##  6 Algeria   2010                  23.0       18
    ##  7 Andorra   2008                 539         NA
    ##  8 Andorra   2009                 253.        NA
    ##  9 Andorra   2010                 405.        NA
    ## 10 Anguila   2008                  24.6       NA
    ## # ℹ 464 more rows

``` r
na_qts <- final_trades %>% filter(is.na(Quantity)) %>% select(reporter)
```

``` r
final_trades <- final_trades %>%
  filter(!reporter %in% na_qts$reporter)
final_trades
```

    ## # A tibble: 147 × 4
    ##    reporter   year `Trade Value 1000USD` Quantity
    ##    <chr>     <dbl>                 <dbl>    <int>
    ##  1 Algeria    2008                 103.        22
    ##  2 Algeria    2009                  74         44
    ##  3 Algeria    2010                  23.0       18
    ##  4 Argentina  2008               14504.    100520
    ##  5 Argentina  2009               18224.     44723
    ##  6 Argentina  2010                9932.     56892
    ##  7 Armenia    2008                 103.       466
    ##  8 Armenia    2009                 218.       151
    ##  9 Armenia    2010                 205.       532
    ## 10 Australia  2008              403742.   3083715
    ## # ℹ 137 more rows
…
