…
rc_share
```

    ## # A tibble: 21 × 4
    ##    secao rc_job_number job_number rc_share
    ##    <chr>         <dbl>      <dbl>    <dbl>
    ##  1 A            101175    2855877   0.0354
    ##  2 B             31705     231261   0.137 
    ##  3 C           1317618    9014641   0.146 
    ##  4 D             32369     125342   0.258 
    ##  5 E             50313     328794   0.153 
    ##  6 F            226052    2920930   0.0774
    ##  7 G           5635236    9573324   0.589 
    ##  8 H            501628    2220842   0.226 
    ##  9 I            299356    1790468   0.167 
    ## 10 J            384519     923209   0.417 
    ## # ℹ 11 more rows
…
    ##             used   (Mb) gc trigger    (Mb)   max used    (Mb)
    ## Ncells   1784506   95.4    3521861   188.1    2095607   112.0
    ## Vcells 663190697 5059.8 1837710942 14020.7 1612217828 12300.3

``` r
rais
```

    ## # A tibble: 41,261,463 × 16
    ##      ano sigla_uf secao descricao_secao       group grau_instrucao_apos_…¹ sexo 
    ##    <dbl> <chr>    <chr> <chr>                 <chr> <chr>                  <chr>
    ##  1  2006 AM       C     Indústrias de transf… RC    7                      1    
    ##  2  2006 AM       C     Indústrias de transf… RM    7                      1    
    ##  3  2006 AM       G     Comércio; reparação … RC    6                      2    
    ##  4  2006 AM       F     Construção            RM    2                      1    
    ##  5  2006 AM       M     Atividades profissio… NRM   6                      2    
    ##  6  2006 AM       G     Comércio; reparação … RC    7                      2    
    ##  7  2006 AM       P     Educação              NRC   8                      1    
    ##  8  2006 AM       H     Transporte, armazena… RC    7                      1    
    ##  9  2006 AM       H     Transporte, armazena… RM    6                      1    
    ## 10  2006 AM       C     Indústrias de transf… RM    7                      2    
    ## # ℹ 41,261,453 more rows
    ## # ℹ abbreviated name: ¹​grau_instrucao_apos_2005
    ## # ℹ 9 more variables: raca_cor <chr>, idade <dbl>,
    ## #   valor_remuneracao_media <dbl>, valor_remuneracao_media_sm <dbl>,
    ## #   mean_wage <dbl>, job_number <dbl>, rc_share <dbl>, x_share <dbl>,
    ## #   exposure <dbl>
…
    ##             used   (Mb) gc trigger    (Mb)   max used    (Mb)
    ## Ncells   1786157   95.4    3521861   188.1    2095607   112.0
    ## Vcells 601302447 4587.6 1837710942 14020.7 1793296247 13681.8

``` r
rais
```

    ## # A tibble: 41,261,463 × 18
    ##    ano   sigla_uf secao       descricao_secao group grau_instrucao_apos_…¹ sexo 
    ##    <fct> <fct>    <fct>       <chr>           <fct> <fct>                  <fct>
    ##  1 2006  AM       Indústrias… Indústrias de … RC    7                      1    
    ##  2 2006  AM       Indústrias… Indústrias de … RM    7                      1    
    ##  3 2006  AM       Comércio; … Comércio; repa… RC    6                      2    
    ##  4 2006  AM       Construção  Construção      RM    2                      1    
    ##  5 2006  AM       Atividades… Atividades pro… NRM   6                      2    
    ##  6 2006  AM       Comércio; … Comércio; repa… RC    7                      2    
    ##  7 2006  AM       Educação    Educação        NRC   8                      1    
    ##  8 2006  AM       Transporte… Transporte, ar… RC    7                      1    
    ##  9 2006  AM       Transporte… Transporte, ar… RM    6                      1    
    ## 10 2006  AM       Indústrias… Indústrias de … RM    7                      2    
    ## # ℹ 41,261,453 more rows
    ## # ℹ abbreviated name: ¹​grau_instrucao_apos_2005
    ## # ℹ 11 more variables: raca_cor <fct>, idade <dbl>,
    ## #   valor_remuneracao_media <dbl>, valor_remuneracao_media_sm <dbl>,
    ## #   mean_wage <dbl>, job_number <dbl>, rc_share <dbl>, x_share <dbl>,
    ## #   exposure <dbl>, log_remuneracao_media <dbl>, cd_secao <chr>
…
    ## `summarise()` has grouped output by 'secao'. You can override using the
    ## `.groups` argument.

``` r
nber30400
```

    ## # A tibble: 336 × 5
    ##    secao             ano   valor_remuneracao_me…¹ exposure log_remuneracao_media
    ##    <fct>             <fct>                  <dbl>    <dbl>                 <dbl>
    ##  1 Administração pú… 2006                   1118.    0.395                  7.02
    ##  2 Administração pú… 2007                   1211.    0.335                  7.10
    ##  3 Administração pú… 2008                   1320.    0.324                  7.19
    ##  4 Administração pú… 2009                   1425.    0.301                  7.26
    ##  5 Administração pú… 2010                   1529.    0.401                  7.33
    ##  6 Administração pú… 2011                   1699.    0.416                  7.44
    ##  7 Administração pú… 2012                   1877.    0.435                  7.54
    ##  8 Administração pú… 2013                   2002.    0.430                  7.60
    ##  9 Administração pú… 2014                   2180.    0.441                  7.69
    ## 10 Administração pú… 2015                   2379.    0.394                  7.77
    ## # ℹ 326 more rows
    ## # ℹ abbreviated name: ¹​valor_remuneracao_media
…
    ## `summarise()` has grouped output by 'secao', 'ano'. You can override using the
    ## `.groups` argument.

``` r
data2
```

    ## # A tibble: 1,344 × 7
    ##    secao                               ano   group  wage exposure log_wage id   
    ##    <fct>                               <fct> <fct> <dbl>    <dbl>    <dbl> <fct>
    ##  1 Administração pública, defesa e se… 2006  NRC   1554.    0.395     7.35 Admi…
    ##  2 Administração pública, defesa e se… 2006  NRM    720.    0.395     6.58 Admi…
    ##  3 Administração pública, defesa e se… 2006  RC    1157.    0.395     7.05 Admi…
    ##  4 Administração pública, defesa e se… 2006  RM     733.    0.395     6.60 Admi…
    ##  5 Administração pública, defesa e se… 2007  NRC   1686.    0.335     7.43 Admi…
    ##  6 Administração pública, defesa e se… 2007  NRM    795.    0.335     6.68 Admi…
    ##  7 Administração pública, defesa e se… 2007  RC    1224.    0.335     7.11 Admi…
    ##  8 Administração pública, defesa e se… 2007  RM     799.    0.335     6.68 Admi…
    ##  9 Administração pública, defesa e se… 2008  NRC   1746.    0.324     7.47 Admi…
    ## 10 Administração pública, defesa e se… 2008  NRM    839.    0.324     6.73 Admi…
    ## # ℹ 1,334 more rows
…
